{
  "Nodes": [
    {
      "Annotation": "all_tundra_nodes",
      "Action": "",
      "Inputs": [],
      "Outputs": [],
      "TargetDirectories": [],
      "PassIndex": 0,
      "ToBuildDependencies": [
        1
      ],
      "ToUseDependencies": [],
      "OverwriteOutputs": true,
      "FrontendResponseFiles": [],
      "AllowUnexpectedOutput": true,
      "AllowedOutputSubstrings": [],
      "DebugActionIndex": 0
    },
    {
      "Annotation": "Il2Cpp /Users/maheshyaweerasinghe/facebookhackathon2021/Library/Il2cppBuildCache/Android/arm64-v8a/Native/arm64-v8a/libil2cpp.so",
      "Action": "\"/Applications/Unity/Hub/Editor/2020.3.22f1/Unity.app/Contents/il2cpp/build/deploy/netcoreapp3.1/il2cpp\" --convert-to-cpp --emit-null-checks --enable-array-bounds-check --dotnetprofile=\"unityaot\" --compile-cpp --libil2cpp-static --platform=\"Android\" --architecture=\"ARM64\" --configuration=\"Release\" --outputpath=\"/Users/maheshyaweerasinghe/facebookhackathon2021/Library/Il2cppBuildCache/Android/arm64-v8a/Native/arm64-v8a/libil2cpp.so\" --cachedirectory=\"/Users/maheshyaweerasinghe/facebookhackathon2021/Assets/../Library/il2cpp_android_arm64-v8a/il2cpp_cache\" --additional-include-directories=\"/Applications/Unity/Hub/Editor/2020.3.22f1/PlaybackEngines/AndroidPlayer/Tools/bdwgc/include\" --additional-include-directories=\"/Applications/Unity/Hub/Editor/2020.3.22f1/PlaybackEngines/AndroidPlayer/Tools/libil2cpp/include\" --baselib-directory=\"/Applications/Unity/Hub/Editor/2020.3.22f1/PlaybackEngines/AndroidPlayer/Variations/il2cpp/Release/StaticLibs/arm64-v8a\" --avoid-dynamic-library-copy --tool-chain-path=\"/Applications/Unity/Hub/Editor/2020.3.22f1/PlaybackEngines/AndroidPlayer/NDK\" --profiler-report --map-file-parser=\"/Applications/Unity/Hub/Editor/2020.3.22f1/Unity.app/Contents/Tools/MapFileParser/MapFileParser\" --directory=\"/Users/maheshyaweerasinghe/facebookhackathon2021/Temp/StagingArea/assets/bin/Data/Managed\" --generatedcppdir=\"/Users/maheshyaweerasinghe/facebookhackathon2021/Library/Il2cppBuildCache/Android/arm64-v8a/il2cppOutput\" --stats-output-dir=\"/Users/maheshyaweerasinghe/facebookhackathon2021/Library/Il2cppBuildCache/Android/arm64-v8a/il2cppStats\"",
      "Inputs": [
        "/Users/maheshyaweerasinghe/facebookhackathon2021/Temp/StagingArea/assets/bin/Data/Managed",
        "/Users/maheshyaweerasinghe/facebookhackathon2021/Temp/StagingArea/assets/bin/Data/Managed/Assembly-CSharp.dll",
        "/Users/maheshyaweerasinghe/facebookhackathon2021/Temp/StagingArea/assets/bin/Data/Managed/AssistantCoreSDKRuntime.dll",
        "/Users/maheshyaweerasinghe/facebookhackathon2021/Temp/StagingArea/assets/bin/Data/Managed/Facebook.WitAI.dll",
        "/Users/maheshyaweerasinghe/facebookhackathon2021/Temp/StagingArea/assets/bin/Data/Managed/Microsoft.MixedReality.Toolkit.Async.dll",
        "/Users/maheshyaweerasinghe/facebookhackathon2021/Temp/StagingArea/assets/bin/Data/Managed/Microsoft.MixedReality.Toolkit.Demos.Gltf.dll",
        "/Users/maheshyaweerasinghe/facebookhackathon2021/Temp/StagingArea/assets/bin/Data/Managed/Microsoft.MixedReality.Toolkit.Demos.InspectorFields.dll",
        "/Users/maheshyaweerasinghe/facebookhackathon2021/Temp/StagingArea/assets/bin/Data/Managed/Microsoft.MixedReality.Toolkit.Demos.UX.Interactables.dll",
        "/Users/maheshyaweerasinghe/facebookhackathon2021/Temp/StagingArea/assets/bin/Data/Managed/Microsoft.MixedReality.Toolkit.Examples.dll",
        "/Users/maheshyaweerasinghe/facebookhackathon2021/Temp/StagingArea/assets/bin/Data/Managed/Microsoft.MixedReality.Toolkit.Gltf.dll",
        "/Users/maheshyaweerasinghe/facebookhackathon2021/Temp/StagingArea/assets/bin/Data/Managed/Microsoft.MixedReality.Toolkit.Providers.UnityAR.dll",
        "/Users/maheshyaweerasinghe/facebookhackathon2021/Temp/StagingArea/assets/bin/Data/Managed/Microsoft.MixedReality.Toolkit.Providers.XRSDK.Oculus.dll",
        "/Users/maheshyaweerasinghe/facebookhackathon2021/Temp/StagingArea/assets/bin/Data/Managed/Microsoft.MixedReality.Toolkit.Providers.XRSDK.dll",
        "/Users/maheshyaweerasinghe/facebookhackathon2021/Temp/StagingArea/assets/bin/Data/Managed/Microsoft.MixedReality.Toolkit.SDK.Experimental.Interactive.dll",
        "/Users/maheshyaweerasinghe/facebookhackathon2021/Temp/StagingArea/assets/bin/Data/Managed/Microsoft.MixedReality.Toolkit.SDK.dll",
        "/Users/maheshyaweerasinghe/facebookhackathon2021/Temp/StagingArea/assets/bin/Data/Managed/Microsoft.MixedReality.Toolkit.Services.CameraSystem.dll",
        "/Users/maheshyaweerasinghe/facebookhackathon2021/Temp/StagingArea/assets/bin/Data/Managed/Microsoft.MixedReality.Toolkit.Services.DiagnosticsSystem.dll",
        "/Users/maheshyaweerasinghe/facebookhackathon2021/Temp/StagingArea/assets/bin/Data/Managed/Microsoft.MixedReality.Toolkit.Services.InputAnimation.dll",
        "/Users/maheshyaweerasinghe/facebookhackathon2021/Temp/StagingArea/assets/bin/Data/Managed/Microsoft.MixedReality.Toolkit.Services.InputSimulation.dll",
        "/Users/maheshyaweerasinghe/facebookhackathon2021/Temp/StagingArea/assets/bin/Data/Managed/Microsoft.MixedReality.Toolkit.Services.InputSystem.dll",
        "/Users/maheshyaweerasinghe/facebookhackathon2021/Temp/StagingArea/assets/bin/Data/Managed/Microsoft.MixedReality.Toolkit.Services.SceneSystem.dll",
        "/Users/maheshyaweerasinghe/facebookhackathon2021/Temp/StagingArea/assets/bin/Data/Managed/Microsoft.MixedReality.Toolkit.Services.SpatialAwarenessSystem.dll",
        "/Users/maheshyaweerasinghe/facebookhackathon2021/Temp/StagingArea/assets/bin/Data/Managed/Microsoft.MixedReality.Toolkit.Services.TeleportSystem.dll",
        "/Users/maheshyaweerasinghe/facebookhackathon2021/Temp/StagingArea/assets/bin/Data/Managed/Microsoft.MixedReality.Toolkit.dll",
        "/Users/maheshyaweerasinghe/facebookhackathon2021/Temp/StagingArea/assets/bin/Data/Managed/Mono.Security.dll",
        "/Users/maheshyaweerasinghe/facebookhackathon2021/Temp/StagingArea/assets/bin/Data/Managed/Oculus.AudioManager.dll",
        "/Users/maheshyaweerasinghe/facebookhackathon2021/Temp/StagingArea/assets/bin/Data/Managed/Oculus.LipSync.dll",
        "/Users/maheshyaweerasinghe/facebookhackathon2021/Temp/StagingArea/assets/bin/Data/Managed/Oculus.Platform.dll",
        "/Users/maheshyaweerasinghe/facebookhackathon2021/Temp/StagingArea/assets/bin/Data/Managed/Oculus.Spatializer.dll",
        "/Users/maheshyaweerasinghe/facebookhackathon2021/Temp/StagingArea/assets/bin/Data/Managed/Oculus.VR.dll",
        "/Users/maheshyaweerasinghe/facebookhackathon2021/Temp/StagingArea/assets/bin/Data/Managed/System.Configuration.dll",
        "/Users/maheshyaweerasinghe/facebookhackathon2021/Temp/StagingArea/assets/bin/Data/Managed/System.Core.dll",
        "/Users/maheshyaweerasinghe/facebookhackathon2021/Temp/StagingArea/assets/bin/Data/Managed/System.Numerics.dll",
        "/Users/maheshyaweerasinghe/facebookhackathon2021/Temp/StagingArea/assets/bin/Data/Managed/System.Xml.dll",
        "/Users/maheshyaweerasinghe/facebookhackathon2021/Temp/StagingArea/assets/bin/Data/Managed/System.dll",
        "/Users/maheshyaweerasinghe/facebookhackathon2021/Temp/StagingArea/assets/bin/Data/Managed/Unity.TextMeshPro.dll",
        "/Users/maheshyaweerasinghe/facebookhackathon2021/Temp/StagingArea/assets/bin/Data/Managed/Unity.XR.Management.dll",
        "/Users/maheshyaweerasinghe/facebookhackathon2021/Temp/StagingArea/assets/bin/Data/Managed/Unity.XR.Oculus.dll",
        "/Users/maheshyaweerasinghe/facebookhackathon2021/Temp/StagingArea/assets/bin/Data/Managed/UnityEngine.AIModule.dll",
        "/Users/maheshyaweerasinghe/facebookhackathon2021/Temp/StagingArea/assets/bin/Data/Managed/UnityEngine.ARModule.dll",
        "/Users/maheshyaweerasinghe/facebookhackathon2021/Temp/StagingArea/assets/bin/Data/Managed/UnityEngine.AndroidJNIModule.dll",
        "/Users/maheshyaweerasinghe/facebookhackathon2021/Temp/StagingArea/assets/bin/Data/Managed/UnityEngine.AnimationModule.dll",
        "/Users/maheshyaweerasinghe/facebookhackathon2021/Temp/StagingArea/assets/bin/Data/Managed/UnityEngine.AssetBundleModule.dll",
        "/Users/maheshyaweerasinghe/facebookhackathon2021/Temp/StagingArea/assets/bin/Data/Managed/UnityEngine.AudioModule.dll",
        "/Users/maheshyaweerasinghe/facebookhackathon2021/Temp/StagingArea/assets/bin/Data/Managed/UnityEngine.CoreModule.dll",
        "/Users/maheshyaweerasinghe/facebookhackathon2021/Temp/StagingArea/assets/bin/Data/Managed/UnityEngine.GridModule.dll",
        "/Users/maheshyaweerasinghe/facebookhackathon2021/Temp/StagingArea/assets/bin/Data/Managed/UnityEngine.IMGUIModule.dll",
        "/Users/maheshyaweerasinghe/facebookhackathon2021/Temp/StagingArea/assets/bin/Data/Managed/UnityEngine.ImageConversionModule.dll",
        "/Users/maheshyaweerasinghe/facebookhackathon2021/Temp/StagingArea/assets/bin/Data/Managed/UnityEngine.InputLegacyModule.dll",
        "/Users/maheshyaweerasinghe/facebookhackathon2021/Temp/StagingArea/assets/bin/Data/Managed/UnityEngine.InputModule.dll",
        "/Users/maheshyaweerasinghe/facebookhackathon2021/Temp/StagingArea/assets/bin/Data/Managed/UnityEngine.JSONSerializeModule.dll",
        "/Users/maheshyaweerasinghe/facebookhackathon2021/Temp/StagingArea/assets/bin/Data/Managed/UnityEngine.ParticleSystemModule.dll",
        "/Users/maheshyaweerasinghe/facebookhackathon2021/Temp/StagingArea/assets/bin/Data/Managed/UnityEngine.Physics2DModule.dll",
        "/Users/maheshyaweerasinghe/facebookhackathon2021/Temp/StagingArea/assets/bin/Data/Managed/UnityEngine.PhysicsModule.dll",
        "/Users/maheshyaweerasinghe/facebookhackathon2021/Temp/StagingArea/assets/bin/Data/Managed/UnityEngine.SharedInternalsModule.dll",
        "/Users/maheshyaweerasinghe/facebookhackathon2021/Temp/StagingArea/assets/bin/Data/Managed/UnityEngine.SpatialTracking.dll",
        "/Users/maheshyaweerasinghe/facebookhackathon2021/Temp/StagingArea/assets/bin/Data/Managed/UnityEngine.SpriteShapeModule.dll",
        "/Users/maheshyaweerasinghe/facebookhackathon2021/Temp/StagingArea/assets/bin/Data/Managed/UnityEngine.SubsystemsModule.dll",
        "/Users/maheshyaweerasinghe/facebookhackathon2021/Temp/StagingArea/assets/bin/Data/Managed/UnityEngine.TerrainModule.dll",
        "/Users/maheshyaweerasinghe/facebookhackathon2021/Temp/StagingArea/assets/bin/Data/Managed/UnityEngine.TextCoreModule.dll",
        "/Users/maheshyaweerasinghe/facebookhackathon2021/Temp/StagingArea/assets/bin/Data/Managed/UnityEngine.TextRenderingModule.dll",
        "/Users/maheshyaweerasinghe/facebookhackathon2021/Temp/StagingArea/assets/bin/Data/Managed/UnityEngine.TilemapModule.dll",
        "/Users/maheshyaweerasinghe/facebookhackathon2021/Temp/StagingArea/assets/bin/Data/Managed/UnityEngine.UI.dll",
        "/Users/maheshyaweerasinghe/facebookhackathon2021/Temp/StagingArea/assets/bin/Data/Managed/UnityEngine.UIModule.dll",
        "/Users/maheshyaweerasinghe/facebookhackathon2021/Temp/StagingArea/assets/bin/Data/Managed/UnityEngine.UnityWebRequestModule.dll",
        "/Users/maheshyaweerasinghe/facebookhackathon2021/Temp/StagingArea/assets/bin/Data/Managed/UnityEngine.VRModule.dll",
        "/Users/maheshyaweerasinghe/facebookhackathon2021/Temp/StagingArea/assets/bin/Data/Managed/UnityEngine.VideoModule.dll",
        "/Users/maheshyaweerasinghe/facebookhackathon2021/Temp/StagingArea/assets/bin/Data/Managed/UnityEngine.XRModule.dll",
        "/Users/maheshyaweerasinghe/facebookhackathon2021/Temp/StagingArea/assets/bin/Data/Managed/UnityEngine.dll",
        "/Users/maheshyaweerasinghe/facebookhackathon2021/Temp/StagingArea/assets/bin/Data/Managed/VoiceSDK.Runtime.dll",
        "/Users/maheshyaweerasinghe/facebookhackathon2021/Temp/StagingArea/assets/bin/Data/Managed/mscorlib.dll",
        "/Applications/Unity/Hub/Editor/2020.3.22f1/Unity.app/Contents/Tools/MapFileParser/MapFileParser",
        "/Applications/Unity/Hub/Editor/2020.3.22f1/PlaybackEngines/AndroidPlayer/Variations/il2cpp/Release/StaticLibs/arm64-v8a/baselib.a",
        "/Applications/Unity/Hub/Editor/2020.3.22f1/PlaybackEngines/AndroidPlayer/Variations/il2cpp/Release/StaticLibs/arm64-v8a/libunityruntime.a",
        "\"/Applications/Unity/Hub/Editor/2020.3.22f1/Unity.app/Contents/il2cpp/build/deploy/netcoreapp3.1/il2cpp\""
      ],
      "Outputs": [
        "/Users/maheshyaweerasinghe/facebookhackathon2021/Library/Il2cppBuildCache/Android/arm64-v8a/Native/arm64-v8a/libil2cpp.so"
      ],
      "TargetDirectories": [],
      "PassIndex": 0,
      "ToBuildDependencies": [],
      "ToUseDependencies": [],
      "OverwriteOutputs": false,
      "FrontendResponseFiles": [],
      "AllowUnexpectedOutput": true,
      "AllowedOutputSubstrings": [],
      "DebugActionIndex": 1
    }
  ],
  "FileSignatures": [
    {
      "File": "../../../../../../../Applications/Unity/Hub/Editor/2020.3.22f1/PlaybackEngines/AndroidPlayer/Tools/bdwgc/include"
    },
    {
      "File": "../../../../../../../Applications/Unity/Hub/Editor/2020.3.22f1/PlaybackEngines/AndroidPlayer/Tools/libil2cpp/include"
    },
    {
      "File": "../../../../../../../Applications/Unity/Hub/Editor/2020.3.22f1/PlaybackEngines/AndroidPlayer/Variations/il2cpp/Release/StaticLibs/arm64-v8a"
    },
    {
      "File": "../../../../../Library"
    },
    {
      "File": "../../../../Temp/StagingArea/assets/bin/Data/Managed"
    },
    {
      "File": "artifacts/buildprogram/tundra_buildprogram.dag.json"
    },
    {
      "File": "il2cpp_settings.json"
    },
    {
      "File": "unitylinker_settings.json"
    }
  ],
  "GlobSignatures": [
    {
      "Path": "../../../../Temp/StagingArea/assets/bin/Data/Managed"
    },
    {
      "Path": "../../../../../../../Applications/Unity/Hub/Editor/2020.3.22f1/PlaybackEngines/AndroidPlayer/Variations/il2cpp/Release/StaticLibs/arm64-v8a",
      "Recurse": 1
    }
  ],
  "ContentDigestExtensions": [
    ".rsp",
    ".dll",
    ".exe",
    ".txt",
    ".c",
    ".cpp",
    ".h",
    ".cs",
    ".hpp"
  ],
  "StructuredLogFileName": "artifacts/tundra.log.json",
  "StateFileName": "artifacts/TundraBuildState.state",
  "StateFileNameTmp": "artifacts/TundraBuildState.state.tmp",
  "ScanCacheFileName": "artifacts/tundra.scancache",
  "ScanCacheFileNameTmp": "artifacts/tundra.scancache.tmp",
  "DigestCacheFileName": "artifacts/tundra.digestcache",
  "DigestCacheFileNameTmp": "artifacts/tundra.digestcache.tmp",
  "DirectoriesCausingImplicitDependencies": [],
        "NamedNodes": {
          "all_tundra_nodes": 0
        }
,  "DefaultNodes": [
    0
  ],
  "SharedResources": [],
  "Scanners": [],
  "Identifier": "artifacts/tundra.dag.json",
  "BuildTitle": "Bee",
  "RelativePathToRoot": ".."
}